{
    "$schema": "https://schemas.wp.org/trunk/block.json",
    "apiVersion": 2,
    "name": "awt/multiple-animated-rich-text",
    "title": "Contenedor para titulos animados",
    "category": "text",
    "icon": "controls-repeat",
    "description": "Crea una animación para transicionar entre varios bloques de texto. Desarrollado a medida para el tema de wordpress de amoved",
    "script": "file:./index.js",
    "editorStyle": "file:./index.css",
    "style": "file:./style-index.css",
    "textdomain": "awt"
}
