{
    "$schema": "https://schemas.wp.org/trunk/block.json",
    "apiVersion": 2,
    "name": "awt/section-bg-video-home",
    "title": "Seccion con video de fondo para la página de inicio",
    "category": "layout",
    "icon": "embed-video",
    "description": "Seccion a medida para el tema de wordpress de amoved",
    "attributes": {
        "id": {
			"type": "number"
		},
        "src": {
			"type": "string",
			"source": "attribute",
			"selector": "video",
			"attribute": "src"
		}
    },
    "script": "file:./index.js",
    "editorStyle": "file:./index.css",
    "style": "file:./style-index.css",
    "textdomain": "awt"
}
