{
    "version": 2,
    "settings": {
        "color": {
            "palette": [
                {
                    "name": "Black",
                    "slug": "black",
                    "color": "#000"
                },
                {
                    "name": "Custom white",
                    "slug": "custom-white",
                    "color": "#F5F1E9"
                },
                {
                    "name": "Bottle Green",
                    "slug": "bottle-green",
                    "color": "#0F6759"
                },
                {
                    "name": "Persian Green",
                    "slug": "persian-green",
                    "color": "#179D88"
                },
                {
                    "name": "Timberwolf",
                    "slug": "timberwolf",
                    "color": "#E0DAD0"
                },
                {
                    "name": "Davys Grey",
                    "slug": "davys-grey",
                    "color": "#4A4A48"
                },
                {
                    "name": "Floral White",
                    "slug": "floral-white",
                    "color": "#F6F1E7"
                },
                {
                    "name": "Ash Grey",
                    "slug": "ash-grey",
                    "color": "#AAC1A7"
                },
                {
                    "name": "Onyx",
                    "slug": "onyx",
                    "color": "#424241"
                },
                {
                    "name": "Jet",
                    "slug": "jet",
                    "color": "#2B2B2B"
                }
            ]
        },
        "typography": {
            "dropCap": false,
            "fluid": true,
            "fontFamilies": [
                {
                    "name": "Inter",
                    "slug": "inter",
                    "fontFamily": "Inter",
            	    "fontFace": [
            	        {
            	            "fontFamily": "Inter",
            	            "fontStretch": "normal",
            	            "fontStyle": "normal",
            	            "fontWeight": "100",
            	            "src": [
            	                "file:./assets/fonts/Inter/Inter-Thin.ttf"
                            ]
            	        },
                        {
            	            "fontFamily": "Inter",
            	            "fontStretch": "normal",
            	            "fontStyle": "normal",
            	            "fontWeight": "300",
            	            "src": [
            	                "file:./assets/fonts/Inter/Inter-Light.ttf"
                            ]
            	        },
            	        {
            	            "fontFamily": "Inter",
            	            "fontStretch": "normal",
            	            "fontStyle": "normal",
            	            "fontWeight": "400",
            	            "src": [
            	                "file:./assets/fonts/Inter/Inter-Regular.ttf"
            	            ]
                        },

                        {
            	            "fontFamily": "Inter",
            	            "fontStretch": "normal",
            	            "fontStyle": "normal",
            	            "fontWeight": "500",
            	            "src": [
            	                "file:./assets/fonts/Inter/Inter-Medium.ttf"
            	            ]
            	        },
            	        {
            	            "fontFamily": "Inter",
            	            "fontStretch": "normal",
            	            "fontStyle": "normal",
            	            "fontWeight": "700",
            	            "src": [
            	                "file:./assets/fonts/Inter/Inter-Bold.ttf"
            	            ]
            	        }
            	    ]
                },
                {
                    "name": "Space Grotesk",
                    "slug": "space-grotesk",
                    "fontFamily": "Space Grotesk",
            	    "fontFace": [
            	        {
            	            "fontFamily": "Space Grotesk",
            	            "fontStretch": "normal",
            	            "fontStyle": "normal",
            	            "fontWeight": "600",
            	            "src": [
            	                "file:./assets/fonts/Space-Grotesk/SpaceGrotesk-Bold.ttf"
                            ]
            	        }
            	    ]
                },
                {
                    "name": "Fork Awesome",
                    "slug": "fork-awesome",
                    "fontFamily": "ForkAwesome",
            	    "fontFace": [
            	        {
            	            "fontFamily": "ForkAwesome",
            	            "fontStretch": "normal",
            	            "fontStyle": "normal",
            	            "fontWeight": "400",
            	            "src": [
            	                "file:./lib/fork-awesome/fonts/forkawesome-webfont.eot",
            	                "file:./lib/fork-awesome/fonts/forkawesome-webfont.svg",
            	                "file:./lib/fork-awesome/fonts/forkawesome-webfont.ttf",
            	                "file:./lib/fork-awesome/fonts/forkawesome-webfont.woff",
            	                "file:./lib/fork-awesome/fonts/forkawesome-webfont.woff2"
                            ]
            	        }
            	    ]
                }
            ],
            "fontSizes": [
                {
                    "fluid": {
                        "min": "0.75rem",
                        "max": "0.875rem"
                    },
                    "size": "0.875rem",
                    "slug": "x-small"
                },
                {
                    
                    "fluid": {
                        "min": "0.875rem",
                        "max": "1rem"
                    },
                    "size": "1rem",
                    "slug": "small"
                },
                {
                    "fluid": {
                        "min": "1.5rem",
                        "max": "1.75rem"
                    },
                    "size": "1.5rem",
                    "slug": "medium"
                },
                {
                    "fluid": {
                        "min": "2rem",
                        "max": "2.125rem"
                    },
                    "size": "2rem",
                    "slug": "large"
                },
                {
                    "fluid": {
                        "min": "3rem",
                        "max": "3.5rem"
                    },
                    "size": "3rem",
                    "slug": "x-large"
                },
                {
                    "fluid": {
                        "min": "4rem",
                        "max": "4.5rem"
                    },
                    "size": "4rem",
                    "slug": "xx-large"
                }
            ]
        },
        "spacing": {
            "spacingScale": {
                "operator": "+",
                "increment": 0.5,
                "steps": 10,
                "mediumStep": 2.5,
                "unit": "rem"
            }
        },
        "layout": {
			"contentSize": "1200px",
			"wideSize": "1440px"
		},
        "custom": {
            "borderRadius": ".5rem",
            "spacing110": "5.5rem",
            "spacing120": "6rem"
        }

    },
    "styles": {
        "typography": {
            "fontFamily": "var(--wp--preset--font-family--inter )"
        },
        "elements": {
            "h1": {
                "color": {
                    "text": "var(--wp--preset--color--white )"
                },
                "typography": {
                    "fontSize": "var(--wp--preset--font-size--xx-large)"
                },
                "spacing": {
                    "margin": {
                        "top": "var(--wp--preset--spacing--70)"
                    }
                }
            },
            "h2": {
                "color": {
                    "text": "var( --wp--preset--color--davys-grey )"
                },
                "typography": {
                    "fontSize": "var(--wp--preset--font-size--x-large)"    
                },
                "spacing": {
                    "margin": {
                        "bottom": "var(--wp--preset--spacing--60)"
                    }
                }
            },
            "h3": {
                "color": {
                    "text": "var( --wp--preset--color--davys-grey )"
                },
                "typography": {
                    "fontSize": "var(--wp--preset--font-size--large)"  
                },
                "spacing": {
                    "margin": {
                        "bottom": "var(--wp--preset--spacing--20)"
                    }
                }
            },
            "h5": {
                "color": {
                    "text": "var( --wp--preset--color--white )"
                },
                "typography": {
                    "fontSize": "var(--wp--preset--font-size--medium)"  
                },
                "spacing": {
                    "margin": {
                        "top": "var(--wp--preset--spacing--10)",
                        "bottom": "var(--wp--preset--spacing--10)"
                    }
                }
            },
            "h6": {
                "color": {
                    "text": "var( --wp--preset--color--ash-grey )"
                },
                "typography": {
                    "fontSize": "var(--wp--preset--font-size--x-small)"  
                },
                "spacing": {
                    "margin": {
                        "top": "var(--wp--preset--spacing--10)",
                        "bottom": "var(--wp--preset--spacing--10)"
                    }
                }
            },
            "p": {
                "typography": {
                    "fontSize": "var(--wp--preset--font-size--small)"
                }
            },
            "button": {
                "color": {
                    "background": "var(--wp--preset--color--bottle-green)",
                    "text": "var(--wp--preset--color--white)"
                },
                "typography": {
                    "fontSize": "var(--wp--preset--font-size--x-small)"  
                }
            },
            "quote": {
                "typography": {
                    "fontFamily": "var(--wp--preset--font-family--space-grotesk)",
                    "fontSize": "var(--wp--preset--font-size--x-small)"  
                }
            }
        }
    },
    "templateParts": [
        {
            "slug": "header",
            "name": "header",
            "title": "Header",
            "area": "header"
        },
        {
            "slug": "hero-home",
            "name": "hero-home",
            "title": "Home hero",
            "area": "uncategorized"
        },
        {
            "slug": "hero-basic",
            "name": "hero-basic",
            "title": "Basic plain background hero",
            "area": "uncategorized"
        },
        {
            "slug": "hero-img",
            "name": "hero-img",
            "title": "Hero with image",
            "area": "uncategorized"
        },
        {
            "slug": "hero-video",
            "name": "hero-video",
            "title": "Hero with background video",
            "area": "uncategorized"
        }
    ]

}