{
    "$schema": "https://schemas.wp.org/trunk/block.json",
    "apiVersion": 2,
    "name": "awt/section",
    "title": "Seccion con estilos predeterminados",
    "category": "layout",
    "description": "Seccion a medida para el tema de wordpress de amoved",
    "supports": {
		"className": true,
		"color": {
            "text": true,
            "background": true,
			"gradients": true
		}
	},
    "script": "file:./index.js",
    "editorStyle": "file:./index.css",
    "style": "file:./style-index.css",
    "textdomain": "awt"
}
